…
# generate 5000 datasets from the model and save mu_hat and p-value
model_test =
  rerun(5000, test_func(mu = 0)) %>% 
  bind_rows() %>% 
  mutate(
    mu_hat = t_test_stats$estimate,
    p_value = t_test_stats$p.value
    ) %>% 
  select(mu_hat, p_value)

model_test
```

    ## # A tibble: 5,000 × 2
    ##    mu_hat p_value
    ##     <dbl>   <dbl>
    ##  1 -1.34   0.175 
    ##  2  0.520  0.556 
    ##  3 -1.66   0.0956
    ##  4  1.01   0.190 
    ##  5 -0.524  0.525 
    ##  6 -0.757  0.452 
    ##  7  1.09   0.237 
    ##  8 -0.932  0.173 
    ##  9  1.32   0.148 
    ## 10  0.593  0.536 
    ## # … with 4,990 more rows
…
